{
  "/api": {
    "target": "http://localhost:3000",
    "secure": false
  },
  "/ai": {
    "target": "http://localhost:5000",
    "secure": false
  },
  "/ws": {
    "target": "http://localhost:3001",
    "secure": false
  },
  "/socket.io": {
    "target": "http://localhost:3001",
    "secure": false
  }
}
